…
```
## # A tibble: 253 × 12
##    id    gender education  ethni…¹ cultu…² culture relig…³   age brood…⁴ anxie…⁵
##    <chr> <chr>  <chr>      <chr>   <chr>   <chr>   <chr>   <dbl>   <dbl>   <dbl>
##  1 <NA>  <NA>   <NA>       <NA>    <NA>    <NA>    <NA>       NA      NA      NA
##  2 <NA>  <NA>   <NA>       <NA>    <NA>    <NA>    <NA>       NA      NA      NA
##  3 1     F      Post-seco… 4       1       Austra… 0          22      10      10
##  4 2     F      Secondary  4       1       Austra… Muslim     21      14      19
##  5 3     F      Other      4       1       Austra… None       28      14       9
##  6 4     F      Secondary  4       1       Austra… None       18       5       8
##  7 5     F      Secondary  4       1       Austra… None       20       7      16
##  8 6     F      Secondary  4       1       Austra… Muslim     22      14      17
##  9 7     M      Secondary  4       1       Austra… Muslim     21      12      14
## 10 8     F      Undergrad… 4       1       Austra… None       41      11      11
## # … with 243 more rows, 2 more variables: depression_total <dbl>,
## #   age_cat <chr>, and abbreviated variable names ¹​ethnicity, ²​culturalgroup,
## #   ³​religion_coded, ⁴​brooding_total, ⁵​anxiety_total
```
…
```r
ptsd_long <- ptsd_long %>%
  separate(scale, into = c("test", "q"), sep = "(?<=\\D)(?=\\d)", convert = TRUE)
ptsd_long
```

```
## # A tibble: 11,308 × 17
##    particip…¹ group traum…² timec…³ pts_d…⁴ had_s…⁵ had_s…⁶ had_s…⁷   age gender
##         <dbl> <dbl>   <dbl>   <dbl>   <dbl>   <dbl>   <dbl>   <dbl> <dbl>  <dbl>
##  1          1     1       4       3      23      12      19      31    22      2
##  2          1     1       4       3      23      12      19      31    22      2
##  3          1     1       4       3      23      12      19      31    22      2
##  4          1     1       4       3      23      12      19      31    22      2
##  5          1     1       4       3      23      12      19      31    22      2
##  6          1     1       4       3      23      12      19      31    22      2
##  7          1     1       4       3      23      12      19      31    22      2
##  8          1     1       4       3      23      12      19      31    22      2
##  9          1     1       4       3      23      12      19      31    22      2
## 10          1     1       4       3      23      12      19      31    22      2
## # … with 11,298 more rows, 7 more variables: education <dbl>, ethnicity <dbl>,
## #   relgion <chr>, religioncode <dbl>, test <chr>, q <int>, score <dbl>, and
## #   abbreviated variable names ¹​participantnumber, ²​traumacoding, ³​timecode,
## #   ⁴​pts_dtotal, ⁵​had_sdep, ⁶​had_sanx, ⁷​had_stotal
```
…
dpage
```

```
## # A tibble: 22 × 3
## # Groups:   culture, age_cat [22]
##    culture age_cat avg_brood
##    <fct>   <fct>       <dbl>
##  1 0       18 - 21     12.2 
##  2 0       21 - 25      9.92
##  3 0       25 - 30      7.47
##  4 0       30 - 35      9.78
##  5 0       35 - 40      9.75
##  6 0       40 - 45      7.25
##  7 0       45 - 50      6.33
##  8 0       50 - 55      6.25
##  9 0       55 - 60      5.83
## 10 0       Over 60      8   
## # … with 12 more rows
```
…
Computing sum of rrs scores

```r
ptsd_rrs_sum <- ptsd_long %>%
  filter(test == "rrs") %>%
 filter(!is.na(score)) %>%
 group_by(id) %>%
 summarise(rrs_sum = sum(score))
ptsd_rrs_sum
```

```
## # A tibble: 228 × 2
##    id    rrs_sum
##    <chr>   <dbl>
##  1 1_1        18
##  2 1_10       22
##  3 1_100      31
##  4 1_101      18
##  5 1_102      31
##  6 1_104      29
##  7 1_105      22
##  8 1_106      17
##  9 1_107      34
## 10 1_108      33
## # … with 218 more rows
```

Separating the id back into participant & culture for plotting


```r
ptsd_sum_sep <- ptsd_rrs_sum %>% 
  separate (id, into = c("group", "participantnumber"), sep = "_", convert = TRUE) 
ptsd_sum_sep  
```

```
## # A tibble: 228 × 3
##    group participantnumber rrs_sum
##    <int>             <int>   <dbl>
##  1     1                 1      18
##  2     1                10      22
##  3     1               100      31
##  4     1               101      18
##  5     1               102      31
##  6     1               104      29
##  7     1               105      22
##  8     1               106      17
##  9     1               107      34
## 10     1               108      33
## # … with 218 more rows
```
…
```r
ptsd_sum_sep %>% 
  group_by(index_t) %>% 
  count(index_t,rrs_sum)
```

```
## # A tibble: 83 × 3
## # Groups:   index_t [7]
##    index_t rrs_sum     n
##    <chr>   <fct>   <int>
##  1 AI      10          3
##  2 AI      11          1
##  3 AI      13          5
##  4 AI      14          2
##  5 AI      15          1
##  6 AI      16          1
##  7 AI      17          3
##  8 AI      18          4
##  9 AI      19          1
## 10 AI      20          3
## # … with 73 more rows
```
…
```r
ptsd_sum_sep %>% 
  group_by(ptsdlev) %>% 
  count(ptsdlev,rrs_sum)
```

```
## # A tibble: 81 × 3
## # Groups:   ptsdlev [8]
##    ptsdlev rrs_sum     n
##    <chr>   <fct>   <int>
##  1 Marked  17          2
##  2 Marked  20          1
##  3 Marked  21          1
##  4 Marked  23          3
##  5 Marked  24          1
##  6 Marked  25          4
##  7 Marked  28          3
##  8 Marked  29          1
##  9 Marked  31          2
## 10 Marked  34          1
## # … with 71 more rows
```
…
