…
fisheries_tidy$catch <- as.numeric(fisheries_tidy$catch)
```

3. How many countries are represented in the data? Provide a count and list their names.

```r
fisheries_tidy %>% 
  count(country) %>%
   summarise(country_names=country, total_numb_countries=n())
```

```
## # A tibble: 203 × 2
##    country_names       total_numb_countries
##    <fct>                              <int>
##  1 Albania                              203
##  2 Algeria                              203
##  3 American Samoa                       203
##  4 Angola                               203
##  5 Anguilla                             203
##  6 Antigua and Barbuda                  203
##  7 Argentina                            203
##  8 Aruba                                203
##  9 Australia                            203
## 10 Bahamas                              203
## # … with 193 more rows
```
…
10. Use the data to do at least one analysis of your choice.

```r
fisheries_tidy %>% 
  filter(year>2000) %>% 
  slice_max(fao_major_fishing_area) %>% 
  summarise(country=country, areas=(fao_major_fishing_area))
```

```
## # A tibble: 562 × 2
##    country   areas
##    <fct>     <fct>
##  1 Argentina 88   
##  2 Argentina 88   
##  3 Argentina 88   
##  4 Argentina 88   
##  5 Argentina 88   
##  6 Argentina 88   
##  7 Argentina 88   
##  8 Argentina 88   
##  9 Argentina 88   
## 10 Argentina 88   
## # … with 552 more rows
```
…
